Exploratory Data Analysis
…
## # A tibble: 3 x 12
##   wage_cat ENROLL TOTAL_REVENUE FEDERAL_REVENUE STATE_REVENUE LOCAL_REVENUE
##   <chr>     <dbl>         <dbl>           <dbl>         <dbl>         <dbl>
## 1 high     1.09e6     16002289.        1258064.      7341120.      7403105.
## 2 interme… 9.53e5     11799719.        1191856.      5385703.      5222160.
## 3 low      9.13e5      7934336.         604284.      3741563.      3588489.
## # … with 6 more variables: TOTAL_EXPENDITURE <dbl>,
## #   INSTRUCTION_EXPENDITURE <dbl>, State.Minimum.Wage <dbl>,
## #   Federal.Minimum.Wage <dbl>, Effective.Minimum.Wage <dbl>, percent <dbl>

joined_data %>% group_by(STATE) %>% filter(YEAR >= "2010") %>% 
    summarize_at(2:12, mean) %>% arrange(desc(percent))

## # A tibble: 50 x 12
##    STATE ENROLL TOTAL_REVENUE FEDERAL_REVENUE STATE_REVENUE LOCAL_REVENUE
##    <chr>  <dbl>         <dbl>           <dbl>         <dbl>         <dbl>
##  1 New … 2.64e6     60539151.        3643551.     24487962.     32407639.
##  2 Nebr… 3.05e5      3983824.         397049.      1255990.      2330785 
##  3 Mass… 9.22e5     16181968          917502.      6331675.      8932791.
##  4 Rhod… 1.37e5      2284576.         203722.       834797.      1246058.
##  5 Conn… 5.17e5     10451970.         556014.      3848023.      6047933.
##  6 New … 1.87e5      3011378          173877.      1025748.      1811754.
##  7 Tenn… 9.91e5      9050744.        1157777       4143191.      3749776.
##  8 Idaho 2.72e5      2112061.         278011       1317779.       516271.
##  9 Nort… 1.46e6     13800940.        1723256.      7827015       4250668.
## 10 Hawa… 1.83e5      2623164.         309540.      2250408         63216.
## # … with 40 more rows, and 6 more variables: TOTAL_EXPENDITURE <dbl>,
## #   INSTRUCTION_EXPENDITURE <dbl>, State.Minimum.Wage <dbl>,
## #   Federal.Minimum.Wage <dbl>, Effective.Minimum.Wage <dbl>, percent <dbl>

joined_data %>% group_by(STATE) %>% filter(YEAR >= "2010") %>% 
    summarize_at(2:12, mean) %>% arrange(desc(TOTAL_REVENUE))

## # A tibble: 50 x 12
##    STATE ENROLL TOTAL_REVENUE FEDERAL_REVENUE STATE_REVENUE LOCAL_REVENUE
##    <chr>  <dbl>         <dbl>           <dbl>         <dbl>         <dbl>
##  1 Cali… 6.21e6     73721341.        8430899.     39308099.     25982343.
##  2 New … 2.64e6     60539151.        3643551.     24487962.     32407639.
##  3 Texas 4.90e6     52562855.        6438061.     20097191.     26027602.
##  4 Illi… 2.06e6     30544360.        2620318.     10618173.     17305869 
##  5 Penn… 1.63e6     28979322.        2302575.     10000590.     16676158.
##  6 New … 1.35e6     28052238.        1381613.     10561591.     16109034.
##  7 Flor… 2.69e6     26097171.        3483316.      9647129.     12966726.
##  8 Ohio  1.62e6     23359283.        1946263.      9584112.     11828909.
##  9 Mich… 1.40e6     18937063.        1873000.     10075855.      6988208.
## 10 Geor… 1.69e6     18099862.        1996661.      7741032.      8362168.
## # … with 40 more rows, and 6 more variables: TOTAL_EXPENDITURE <dbl>,
## #   INSTRUCTION_EXPENDITURE <dbl>, State.Minimum.Wage <dbl>,
## #   Federal.Minimum.Wage <dbl>, Effective.Minimum.Wage <dbl>, percent <dbl>

joined_data %>% filter(STATE == "Texas" | STATE == "California") %>% 
    select(STATE, YEAR, TOTAL_REVENUE, TOTAL_EXPENDITURE, Effective.Minimum.Wage, 
        percent)

## # A tibble: 48 x 6
##    STATE       YEAR TOTAL_REVENUE TOTAL_EXPENDITU… Effective.Minimum.Wa… percent
##    <chr>      <dbl>         <dbl>            <dbl>                 <dbl>   <dbl>
##  1 California  1993      28043338         28110986                  4.25    54.4
##  2 Texas       1993      20267205         18574871                  4.25    48.0
##  3 California  1994      23440845         23012688                  4.25    54.1
##  4 Texas       1994      19713604         19224149                  4.25    51.1
##  5 California  1995      29512214         30097549                  4.25    53.6
##  6 Texas       1995      20483376         20198924                  4.25    52.7
##  7 California  1996      31282981         31561692                  4.25    53.5
##  8 Texas       1996      22241369         22401797                  4.25    51.0
##  9 California  1997      35614934         33862281                  4.75    53.6
## 10 Texas       1997      23091567         23671010                  4.75    50.9
## # … with 38 more rows

joined_data %>% group_by(wage_cat, STATE) %>% summarize(count = n()) %>% 
    arrange(count) %>% pivot_wider(names_from = "wage_cat", values_from = "count")

## # A tibble: 50 x 4
##    STATE          high intermediate   low
##    <chr>         <int>        <int> <int>
##  1 Hawaii            1            9    14
##  2 Nebraska          1            6    17
##  3 West Virginia     1            7    16
##  4 Alaska            2            5    17
##  5 Arizona           2            6    16
##  6 Colorado          2            6    16
##  7 Delaware          2            5    17
##  8 Florida           2            5    17
##  9 Maryland          2            5    17
## 10 Massachusetts     2            8    14
## # … with 40 more rows
…
